{
    "type": "mysql",
    "host": "localhost",
    "port": 3306,
    "username": "root",
    "password": "credipronto",
    "database": "node_example",
    "entities": [
        "./src/models/*.ts"
    ],
    "migrations": [
        "./src/database/migrations/*.ts"
    ],
    "cli": {
        "migrationsDir": "src/database/migrations"
    }
}